<svg xmlns="http://www.w3.org/2000/svg" width="2" height="23" viewBox="0 0 2 23">
  <g id="Group_4189" data-name="Group 4189" transform="translate(-416 -510)">
    <line id="Line_133" data-name="Line 133" y2="3" transform="translate(417 522)" fill="none" stroke="#032447" stroke-linecap="round" stroke-width="2"/>
    <line id="Line_135" data-name="Line 135" y2="3" transform="translate(417 529)" fill="none" stroke="#032447" stroke-linecap="round" stroke-width="2"/>
    <line id="Line_134" data-name="Line 134" y2="7" transform="translate(417 511)" fill="none" stroke="#032447" stroke-linecap="round" stroke-width="2"/>
  </g>
</svg>
